{
	"process_id" : 948,
	"version" : "2019.2.0f1",
	"app_path" : "/Applications/Unity/Hub/Editor/2019.2.0f1/Unity.app",
	"app_contents_path" : "/Applications/Unity/Hub/Editor/2019.2.0f1/Unity.app/Contents"
}